INDEX VERSION 1.131+C:\Users\HP\Desktop\WebdriverTesting- newOne\.metadata\.plugins\org.eclipse.jdt.core
334101763.index
340530373.index
2836866565.index
2969347756.index
431723234.index
1302790908.index
543409727.index
2075892729.index
158655249.index
366764813.index
4005617011.index
3735682096.index
3145607036.index
887542210.index
134360950.index
3982276604.index
2925298262.index
1056031855.index
1840112532.index
4062329064.index
3111112017.index
1699896400.index
1548670031.index
197789008.index
99707415.index
1924480154.index
2725125150.index
1370727694.index
1686655237.index
4170970559.index
2103553166.index
3627084181.index
3440608069.index
2362144765.index
1654674800.index
3242636025.index
3788255167.index
376087921.index
2816613229.index
3608585563.index
189530877.index
3449055620.index
587327626.index
3503527483.index
